8.8.4.0/24
8.8.8.0/24
64.233.160.0/19
64.233.168.0/23
64.233.172.0/24
64.233.173.0/24
64.233.182.0/23
66.102.0.0/20
66.102.2.0/24
66.102.3.0/24
66.102.4.0/24
66.102.10.0/23
66.102.12.0/23
66.249.64.0/19
66.249.66.0/24
66.249.67.0/24
66.249.68.0/24
66.249.69.0/24
66.249.71.0/24
66.249.72.0/24
66.249.82.0/24
66.249.85.0/24
70.32.128.0/19
72.14.192.0/18
72.14.199.0/24
72.14.202.0/23
72.14.204.0/23
72.14.208.0/23
72.14.225.0/24
72.14.226.0/24
72.14.228.0/24
72.14.244.0/23
72.14.252.0/24
74.125.0.0/16
74.125.31.0/24
74.125.32.0/24
74.125.33.0/24
74.125.36.0/24
74.125.37.0/24
74.125.38.0/23
74.125.42.0/23
74.125.44.0/23
74.125.46.0/23
74.125.52.0/23
74.125.54.0/23
74.125.58.0/24
74.125.62.0/24
74.125.63.0/24
74.125.64.0/23
74.125.66.0/24
74.125.70.0/23
74.125.72.0/23
74.125.75.0/24
74.125.78.0/23
74.125.80.0/23
74.125.90.0/23
74.125.92.0/23
74.125.112.0/23
74.125.114.0/23
74.125.116.0/24
74.125.117.0/24
74.125.118.0/24
74.125.119.0/24
74.125.120.0/24
74.125.121.0/24
74.125.122.0/24
74.125.123.0/24
74.125.126.0/23
74.125.146.0/23
74.125.156.0/23
74.125.158.0/23
74.125.224.0/24
74.125.225.0/24
74.125.226.0/24
74.125.227.0/24
74.125.229.0/24
74.125.230.0/24
74.125.232.0/24
74.125.233.0/24
74.125.234.0/24
74.125.235.0/24
74.125.236.0/24
74.125.237.0/24
74.125.238.0/24
74.125.239.0/24
108.59.80.0/20
113.197.105.0/24
173.194.0.0/16
173.194.32.0/24
173.194.33.0/24
173.194.34.0/24
173.194.35.0/24
173.194.37.0/24
173.194.38.0/24
173.194.39.0/24
173.194.41.0/24
173.194.42.0/24
173.194.64.0/24
173.194.65.0/24
173.194.66.0/24
173.194.67.0/24
173.194.69.0/24
173.194.70.0/24
173.255.112.0/20
193.142.125.0/24
207.223.160.0/20
209.85.128.0/17
209.85.136.0/23
209.85.142.0/23
209.85.144.0/23
209.85.146.0/24
209.85.147.0/24
209.85.152.0/23
209.85.168.0/23
209.85.172.0/23
209.85.174.0/23
209.85.194.0/23
209.85.212.0/24
209.85.224.0/23
209.85.226.0/23
209.85.228.0/23
209.85.230.0/23
209.85.238.0/24
216.239.32.0/19
216.239.32.0/24
216.239.33.0/24
216.239.34.0/24
216.239.36.0/24
216.239.38.0/24
216.239.39.0/24
216.239.44.0/23
